particle_system Supernova
{
	material Hidden.001
	particle_width 1.0
	particle_height 1.0
	quota 50
	cull_each false
	sorted false
	local_space false
	iteration_interval 0.0
	nonvisible_update_timeout 0.100000001490116
	billboard_type point
	billboard_origin center
	billboard_rotation_type texcoord
	point_rendering false
	accurate_facing false

	emitter Point
	{
		position 0.0 0.0 0.100000001490116
		direction 0.0 0.0 1.0
		angle 180
		emission_rate 50.1
		velocity_min 450
		velocity_max 500
		time_to_live_min 0.5
		time_to_live_max 0.7
		duration_min 0.2
		duration_max 0.4
		repeat_delay_min 1
		repeat_delay_max 2.21
		colour_range_start 1 0 0 1
		colour_range_end 1 0 0 1
	}

	affector Scaler
	{
		rate 80
	}

	affector ColourInterpolator
	{
		time0 0.43
		colour0 1 0 0 1
		time1 0.75
		colour1 1 0 0 1
		time2 0
		colour2 1 0 0 1
		time3 0.81
		colour3 1 0 0 1
		time4 0.9
		colour4 1 0 0 1
		time5 0.95
		colour5 1 0 0 1
	}

	affector Rotator
	{
		rotation_speed_range_start 10
		rotation_speed_range_end 100
		rotation_range_start 10
		rotation_range_end 100
	}
}

}
