// Arma genrated by blender2ogre 0.6.0

material Arma 
{
    receive_shadows on 

    technique
    {
        pass Arma
        {
            ambient 0.23146089911460876 0.252941370010376 0.252941370010376 1.0
            diffuse 0.23146089911460876 0.252941370010376 0.252941370010376 1.0
            specular 1.0 1.0 1.0 1.0 127.75
            emissive 0.0 0.0 0.0 1.0

            alpha_to_coverage off
            colour_write on
            cull_hardware clockwise
            depth_check on
            depth_func less_equal
            depth_write on
            illumination_stage 
            light_clip_planes off
            light_scissor off
            lighting on
            normalise_normals off
            polygon_mode solid
            scene_blend one zero
            scene_blend_op add
            shading gouraud
            transparent_sorting on

            texture_unit 
            {
                texture Beretta_002.jpg
                tex_address_mode wrap
                scale 1.0 1.0
                colour_op modulate
            }
        }
    }
}
