// wall_grey genrated by blender2ogre 0.6.0

material wall_grey 
{
    receive_shadows on 

    technique
    {
        pass wall_grey
        {
            ambient 0.7246332168579102 0.7356576919555664 0.7137055397033691 1.0
            diffuse 0.5797065821246292 0.5885261623341762 0.5709644402707283 1.0
            specular 0.20000000298023224 0.20000000298023224 0.20000000298023224 1.0 12.5
            emissive 0.0 0.0 0.0 1.0

            alpha_to_coverage off
            colour_write on
            cull_hardware clockwise
            depth_check on
            depth_func less_equal
            depth_write on
            illumination_stage 
            light_clip_planes off
            light_scissor off
            lighting on
            normalise_normals off
            polygon_mode solid
            scene_blend one zero
            scene_blend_op add
            shading gouraud
            transparent_sorting on

            texture_unit 
            {
                texture Concrete_Block-2.jpg
                tex_address_mode wrap
                scale 1.0 1.0
                colour_op modulate
            }
        }
    }
}
